%YAML 1.1
%TAG !u! tag:unity3d.com,2011:
--- !u!1001 &672745715213684202
PrefabInstance:
  m_ObjectHideFlags: 0
  serializedVersion: 2
  m_Modification:
    m_TransformParent: {fileID: 0}
    m_Modifications:
    - target: {fileID: 8252340772755372557, guid: fab1b6b802be53746bfadd40dbcc09a6,
        type: 3}
      propertyPath: m_Name
      value: StarSparrow1
      objectReference: {fileID: 0}
    - target: {fileID: 8254158289701249077, guid: fab1b6b802be53746bfadd40dbcc09a6,
        type: 3}
      propertyPath: m_LocalPosition.x
      value: 3.2
      objectReference: {fileID: 0}
    - target: {fileID: 8254158289701249077, guid: fab1b6b802be53746bfadd40dbcc09a6,
        type: 3}
      propertyPath: m_LocalPosition.y
      value: -4.2
      objectReference: {fileID: 0}
    - target: {fileID: 8254158289701249077, guid: fab1b6b802be53746bfadd40dbcc09a6,
        type: 3}
      propertyPath: m_LocalPosition.z
      value: 20.6
      objectReference: {fileID: 0}
    - target: {fileID: 8254158289701249077, guid: fab1b6b802be53746bfadd40dbcc09a6,
        type: 3}
      propertyPath: m_LocalRotation.x
      value: 0
      objectReference: {fileID: 0}
    - target: {fileID: 8254158289701249077, guid: fab1b6b802be53746bfadd40dbcc09a6,
        type: 3}
      propertyPath: m_LocalRotation.y
      value: 0
      objectReference: {fileID: 0}
    - target: {fileID: 8254158289701249077, guid: fab1b6b802be53746bfadd40dbcc09a6,
        type: 3}
      propertyPath: m_LocalRotation.z
      value: 0
      objectReference: {fileID: 0}
    - target: {fileID: 8254158289701249077, guid: fab1b6b802be53746bfadd40dbcc09a6,
        type: 3}
      propertyPath: m_LocalRotation.w
      value: 1
      objectReference: {fileID: 0}
    - target: {fileID: 8254158289701249077, guid: fab1b6b802be53746bfadd40dbcc09a6,
        type: 3}
      propertyPath: m_RootOrder
      value: 0
      objectReference: {fileID: 0}
    - target: {fileID: 8254158289701249077, guid: fab1b6b802be53746bfadd40dbcc09a6,
        type: 3}
      propertyPath: m_LocalEulerAnglesHint.x
      value: 0
      objectReference: {fileID: 0}
    - target: {fileID: 8254158289701249077, guid: fab1b6b802be53746bfadd40dbcc09a6,
        type: 3}
      propertyPath: m_LocalEulerAnglesHint.y
      value: 0
      objectReference: {fileID: 0}
    - target: {fileID: 8254158289701249077, guid: fab1b6b802be53746bfadd40dbcc09a6,
        type: 3}
      propertyPath: m_LocalEulerAnglesHint.z
      value: 0
      objectReference: {fileID: 0}
    m_RemovedComponents: []
  m_SourcePrefab: {fileID: 100100000, guid: fab1b6b802be53746bfadd40dbcc09a6, type: 3}
